{
  "port": 4915,
  "https": false,
  "access_key": "9OAMUJHalcpJcR0CohSNTXDirqA",
  "render_access_key": "APNpLHHSJYQ9uV4R",
  "mail_access_key": "VaX8pHGLBw",
  "rabbitmq": "amqp://render:Render!xyz123@localhost:5672/render",
  "mongodb": "mongodb://fitindev:FN%40%40%40123DB2020@mongo3.fitin.dev:27017/consultant",
  "mysql": {
    "master": {
      "host": "localhost",
      "port": 3306,
      "name": "fitin-ecom",
      "user": "fitin",
      "pwd": "Fitin@xyz123",
      "limit": 100,
      "debug": false
    },
    "slave": {
      "host": "localhost",
      "port": 3306,
      "name": "fitin-ecom",
      "user": "fitin",
      "pwd": "Fitin@xyz123",
      "limit": 100,
      "debug": false
    }
  },
  "version": "2020.04.24",
  "log_level": "debug",
  "urls": {
    "domain": "tuvan.fitin.vn",
    "consultant-api-url": "http://localhost:4915/api/v2",
    "quotation_url": "http://localhost:4915",
    "cdn": "https://cdn.fitin.dev",
    "ecom_api_url": "https://api2.fitin.dev/api/frontend/v1",
    "cdn-consultant": "https://cdn-tuvan.fitin.dev",
    "render_service_url": "https://render.fitin.dev/v1",
    "cart_url": "https://html.fitin.dev/checkout/cart",
    "fitin_id_url": "https://id.fitin.dev/api/v1",
    "mail_api_url": "https://api-mail.fitin.vn/api/v2/send-email",
    "panorama_view_url": "https://cdn.fitin.dev/panorama/view",
    "panorama_image_url": "https://cdn.fitin.dev/panorama/images",
    "cms_ecom": "cms-ecom",
    "homestyler_api_url" : "https://api-editor.fitin.vn"
  },
  "hubspot": {
    "api_key": "38eeae0e-2ac2-4afc-ad6b-bd9ba5b6c6f2",
    "api_url": "https://api.hubapi.com",
    "hubspot_id": "7117918",
    "owner_id": "43236552",
    "contact_list_id": 1,
    "form_quick_consultant": "5555a972-64f9-4250-ab9f-dfdbd1b8cd80",
    "form_dl_lookbook": "5555a972-64f9-4250-ab9f-dfdbd1b8cd80",
    "form_dl_project_info": "5555a972-64f9-4250-ab9f-dfdbd1b8cd80",
    "form_home_renovation": "5555a972-64f9-4250-ab9f-dfdbd1b8cd80"
  },
  "storage": {
    "root": "/var/www/static/project.fitin.vn",
    "user_data": "/var/www/static/tuvan.fitin.vn/storage",
    "static": "/var/www/static/project.fitin.vn/static",
    "panorama": "/var/www/static/project.fitin.vn/panorama/images",
    "static_ecom": "/var/www/static/project.fitin.vn/cms-ecom"
  },
  "redis": {
    "host": "redis3.fitin.dev",
    "port": 6379,
    "prefix": "consultant-"
  },
  "jwt_secret" : "9OAMUJHalcpJcR0CohSNTXDirqA",
  "access_secret_key" : "JuggAmTaPaTechies45MinGG",
  "homestyler_secret_key" : "NT8SL3uWc1VBIpseZqv2"
}