{
  "apps": [
    {
      "name": "fitin-consultant",
      "script": "bin/www",
      "instances": 1,
      "exec_mode": "cluster",
      "max_memory_restart" : "2000M",
      "kill_timeout" : 3000,
      "args": [],
      "watch": true,
      "autorestart": true,
      "ignore_watch": [
        ".git",
        "node_modules",
        "public",
        "logs"
      ],
      "error_file": "../logs/consultant-err.log",
      "out_file": "../logs/consultant-out.log",
      "pid_file": "../logs/consultant.pid",
	  "combine_logs": true,
      "env": {
        "VERSION" : "2020.04.27-b1",
        "NODE_ENV": "production",
        "CONFIG" : "production"
      }
    },
	{
      "name": "fitin-consultant-worker",
      "script": "bin/qt-worker",
      "instances": 1,
      "exec_mode": "cluster",
      "max_memory_restart" : "2000M",
      "kill_timeout" : 3000,
      "args": [],
      "watch": true,
      "autorestart": true,
      "ignore_watch": [
        ".git",
        "node_modules",
        "public",
        "logs"
      ],
      "error_file": "../logs/consultant-worker-err.log",
      "out_file": "../logs/consultant-worker-out.log",
      "pid_file": "../logs/consultant-worker.pid",
	  "combine_logs": true,
      "env": {
        "VERSION" : "2020.04.27-b1",
        "NODE_ENV": "production",
        "CONFIG" : "production"
      }
    }
  ]
}